C:\kampusMerdeka\Chapter03\Challenge3\src\main\java\AbstractWrite.java
C:\kampusMerdeka\Chapter03\Challenge3\src\main\java\InterfaceCount.java
C:\kampusMerdeka\Chapter03\Challenge3\src\main\java\Median.java
C:\kampusMerdeka\Chapter03\Challenge3\src\main\java\Menu.java
C:\kampusMerdeka\Chapter03\Challenge3\src\main\java\WriteMean.java
C:\kampusMerdeka\Chapter03\Challenge3\src\main\java\Mean.java
C:\kampusMerdeka\Chapter03\Challenge3\src\main\java\ReadAndConvertToList.java
C:\kampusMerdeka\Chapter03\Challenge3\src\main\java\Modus.java
C:\kampusMerdeka\Chapter03\Challenge3\src\main\java\WriteFrekuensi.java
C:\kampusMerdeka\Chapter03\Challenge3\src\main\java\Frekuensi.java
C:\kampusMerdeka\Chapter03\Challenge3\src\main\java\Challenge3.java
